Functions.utf8.md
…
functions you have written yourself.

Its hard to do anything in R without using some of the built-in functions, but have you written youre own functions? If not, its time to start.

Below we spend some time outlining the two main types of function, why use functions, and then how they are constructed.

To illustrate our examples, we will use a sample data set containing a series of different measurements from replicated algal samples. You can read the data into R directly from the web:

library(tidyverse)
algae <-  read_csv("http://environmentalcomputing.net/wp-content/uploads/2016/05/Algal_traits.csv")

(or if you like download the data set, Algal_traits.csv). Taking a look we see a bunch of variables like height, weight etc

## # A tibble: 60 x 12
##    Location Type     Species height length dryweight wetwet strength X9   
##    <chr>    <chr>    <chr>    <dbl>  <dbl>     <dbl>  <dbl>    <dbl> <chr>
##  1 w1       red.alg a       0.395   2.16     0.956    2.46     2.99 <NA> 
##  2 w1       red.alg a       0.0189  1.98     0.0655   1.96     2.76 <NA> 
##  3 w1       red.alg a       0.698   4.72     0.200    2.24     2.25 <NA> 
##  4 w1       red.alg a       0.139   2.00     0.467    1.53     2.31 <NA> 
##  5 w1       red.alg a       0.377   4.41     0.978    2.10     2.33 <NA> 
##  6 w2       red.alg a       0.0767  0.572    0.100    1.61    NA    <NA> 
##  7 w2       red.alg a       0.933   0.839    0.564    1.75     2.47 <NA> 
##  8 w2       red.alg a       0.0617  4.62     0.252    1.72     2.64 <NA> 
##  9 w2       red.alg a       0.991   4.08     0.254    1.71     2.52 <NA> 
## 10 w2       red.alg a       0.314   2.13     0.125    2.14     2.58 <NA> 
## # ... with 50 more rows, and 3 more variables: X10 <chr>, X11 <chr>,
## #   X12 <chr>
…
